<svg xmlns="http://www.w3.org/2000/svg" width="28" height="28" viewBox="0 0 28 28">
  <defs>
    <style>
      .cls-1 {
        fill: #fff;
        fill-rule: evenodd;
      }
    </style>
  </defs>
  <path id="social-lkin.svg" class="cls-1" d="M1088.45,1657.95h-2.67v-8.03h2.67v8.03Zm-1.33-9.12h-0.02a1.393,1.393,0,1,1,.03-2.78A1.394,1.394,0,1,1,1087.12,1648.83Zm10.95,9.12h-2.67v-4.3c0-1.07-.38-1.81-1.35-1.81a1.458,1.458,0,0,0-1.37.98,1.791,1.791,0,0,0-.09.65v4.48h-2.66s0.03-7.28,0-8.03h2.66v1.14a2.657,2.657,0,0,1,2.41-1.33c1.75,0,3.07,1.15,3.07,3.62v4.6Zm2.49,8.05h-17.12a5.446,5.446,0,0,1-5.44-5.44v-17.12a5.446,5.446,0,0,1,5.44-5.44h17.12a5.446,5.446,0,0,1,5.44,5.44v17.12A5.446,5.446,0,0,1,1100.56,1666Zm-17.12-24.89a2.339,2.339,0,0,0-2.33,2.33v17.12a2.339,2.339,0,0,0,2.33,2.33h17.12a2.339,2.339,0,0,0,2.33-2.33v-17.12a2.339,2.339,0,0,0-2.33-2.33h-17.12Z" transform="translate(-1078 -1638)"/>
</svg>
